{
  "id": "1471682",
  "tournamentId": 2322,
  "name": "Zyra FTW",
  "iconId": 52,
  "tier": 1,
  "captain": "Uh2MFNYS030H2909B7rplMdGL-CvarKuyB6ZxGNm3xWuF7g",
  "abbreviation": "ZFW",
  "players": [
    {
      "summonerId": "Uh2MFNYS030H2909B7rplMdGL-CvarKuyB6ZxGNm3xWuF7g",
      "position": "JUNGLE",
      "role": "CAPTAIN"
    },
    {
      "summonerId": "Uh2MFNYS030H2909B7rplMdGL-CvarKuyB6ZxGNm3ywuF7g",
      "position": "UTILITY",
      "role": "MEMBER"
    },
    {
      "summonerId": "Uh9MFNYS030H2909B7rplMdGL-CvarKuyB6ZxGNm3xWuF7g",
      "position": "MIDDLE",
      "role": "MEMBER"
    },
    {
      "summonerId": "ph2MFNYS030H2909B7rplMdGL-CvarKuyB6ZxGNm3xWuF7g",
      "position": "BOTTOM",
      "role": "MEMBER"
    },
    {
      "summonerId": "ch2MFNYS030H2909B7rplMdGL-CvarKuyB6ZxGNm3xWuF7g",
      "position": "TOP",
      "role": "MEMBER"
    }
  ]
}