{
  "profileIconId": 4214,
  "name": "RelaytedTCM400",
  "puuid": "JRwiKdfTwr1kDArVF9d_Jxpvx1Tjn8haNPEVZ4JQRvi01DAEM2NEN8SIEFiFwjqcCnhPu45gfmmIYB",
  "summonerLevel": 232,
  "accountId": "MVKZb0Z9ELjnu9JqsALsqKJdpLGhX-6F2yAGAUI4kOr94h",
  "id": "id_of_tcm404",
  "revisionDate": 1580944491000
}